{"name":"get exitoso","id":"catalogo-de-colores;get-exitoso","testSteps":[{"number":1,"description":"Given que el usuario tiene conexion  a un navegador","duration":2872,"startTime":"2021-10-22T16:24:05.499036800-05:00[America/Bogota]","result":"SUCCESS","precondition":false,"level":0,"children":[{"number":2,"description":"David the actor get albunes compl","duration":2516,"startTime":"2021-10-22T16:24:05.763185400-05:00[America/Bogota]","result":"SUCCESS","precondition":false,"level":1,"children":[{"number":3,"description":"David the actor executes a GET on the resource /api/unknown","duration":2449,"startTime":"2021-10-22T16:24:05.828117900-05:00[America/Bogota]","result":"SUCCESS","precondition":false,"level":2,"children":[{"number":4,"description":"GET https://reqres.in/api/unknown\r","duration":0,"startTime":"2021-10-22T16:24:08.274215800-05:00[America/Bogota]","result":"SUCCESS","restQuery":{"method":"GET","path":"https://reqres.in/api/unknown\r","content":"\r","contentType":"application/json","requestHeaders":"Accept\u003d*/*\r\n\t\t\t\tContent-Type\u003dapplication/json; charset\u003dUTF-8\r","requestCookies":"\r","responseHeaders":"Date: Fri, 22 Oct 2021 21:24:22 GMT\r\nContent-Type: application/json; charset\u003dutf-8\r\nTransfer-Encoding: chunked\r\nConnection: keep-alive\r\nx-powered-by: Express\r\naccess-control-allow-origin: *\r\netag: W/\"2c1-N6Rqerxquq2kgQhL51EiSg4x0R8\"\r\nvia: 1.1 vegur\r\nCache-Control: max-age\u003d14400\r\nCF-Cache-Status: HIT\r\nAge: 2243\r\nExpect-CT: max-age\u003d604800, report-uri\u003d\"https://report-uri.cloudflare.com/cdn-cgi/beacon/expect-ct\"\r\nReport-To: {\"endpoints\":[{\"url\":\"https:\\/\\/a.nel.cloudflare.com\\/report\\/v3?s\u003dbSqgEzcnGk8twD2ctvEy1alTbCmyrhd1w%2FRpQX3FpDKB1A9i%2F7yAIQIVbizSMptk%2FiQab1oo%2Bra34jvx6Xp7szQ3NCwnxpcghUD0Dw5xGZmFJRukD2AFAM2t2ls%3D\"}],\"group\":\"cf-nel\",\"max_age\":604800}\r\nNEL: {\"success_fraction\":0,\"report_to\":\"cf-nel\",\"max_age\":604800}\r\nVary: Accept-Encoding\r\nServer: cloudflare\r\nCF-RAY: 6a25cac7a8475730-MIA\r\nContent-Encoding: gzip\r\nalt-svc: h3\u003d\":443\"; ma\u003d86400, h3-29\u003d\":443\"; ma\u003d86400, h3-28\u003d\":443\"; ma\u003d86400, h3-27\u003d\":443\"; ma\u003d86400\r","responseCookies":"\r","responseBody":"{\n    \"page\": 1,\n    \"per_page\": 6,\n    \"total\": 12,\n    \"total_pages\": 2,\n    \"data\": [\n        {\n            \"id\": 1,\n            \"name\": \"cerulean\",\n            \"year\": 2000,\n            \"color\": \"#98B2D1\",\n            \"pantone_value\": \"15-4020\"\n        },\n        {\n            \"id\": 2,\n            \"name\": \"fuchsia rose\",\n            \"year\": 2001,\n            \"color\": \"#C74375\",\n            \"pantone_value\": \"17-2031\"\n        },\n        {\n            \"id\": 3,\n            \"name\": \"true red\",\n            \"year\": 2002,\n            \"color\": \"#BF1932\",\n            \"pantone_value\": \"19-1664\"\n        },\n        {\n            \"id\": 4,\n            \"name\": \"aqua sky\",\n            \"year\": 2003,\n            \"color\": \"#7BC4C4\",\n            \"pantone_value\": \"14-4811\"\n        },\n        {\n            \"id\": 5,\n            \"name\": \"tigerlily\",\n            \"year\": 2004,\n            \"color\": \"#E2583E\",\n            \"pantone_value\": \"17-1456\"\n        },\n        {\n            \"id\": 6,\n            \"name\": \"blue turquoise\",\n            \"year\": 2005,\n            \"color\": \"#53B0AE\",\n            \"pantone_value\": \"15-5217\"\n        }\n    ],\n    \"support\": {\n        \"url\": \"https://reqres.in/#support-heading\",\n        \"text\": \"To keep ReqRes free, contributions towards server costs are appreciated!\"\n    }\n}","statusCode":200},"precondition":false,"level":3}]}]},{"number":5,"description":"Then El codigo de respuesta  should be (200)","duration":1,"startTime":"2021-10-22T16:24:08.363108900-05:00[America/Bogota]","result":"SUCCESS","precondition":false,"level":1}]},{"number":6,"description":"When cuando el usuario realiza correctamente la peticion del servicio","duration":437,"startTime":"2021-10-22T16:24:08.373099500-05:00[America/Bogota]","result":"SUCCESS","precondition":false,"level":0,"children":[{"number":7,"description":"Then Usuaruo  no nulo should be not null","duration":0,"startTime":"2021-10-22T16:24:08.806851700-05:00[America/Bogota]","result":"SUCCESS","precondition":false,"level":1}]},{"number":8,"description":"Then el usuario deberá observar obtener correctamente la lista con los colores disponibles","duration":14,"startTime":"2021-10-22T16:24:08.811846700-05:00[America/Bogota]","result":"SUCCESS","precondition":false,"level":0,"children":[{"number":9,"description":"Then el primer color de la lsita  should be \u0027#98B2D1\u0027","duration":0,"startTime":"2021-10-22T16:24:08.814843900-05:00[America/Bogota]","result":"SUCCESS","precondition":false,"level":1},{"number":10,"description":"Then el primer nombre nombre de la lista should be \u0027cerulean\u0027","duration":0,"startTime":"2021-10-22T16:24:08.817841200-05:00[America/Bogota]","result":"SUCCESS","precondition":false,"level":1},{"number":11,"description":"Then el ultimo color de la lista es  should be \u0027#53B0AE\u0027","duration":0,"startTime":"2021-10-22T16:24:08.820837900-05:00[America/Bogota]","result":"SUCCESS","precondition":false,"level":1},{"number":12,"description":"Then el ultimo nombre de la lista es  should be \u0027blue turquoise\u0027","duration":0,"startTime":"2021-10-22T16:24:08.823834-05:00[America/Bogota]","result":"SUCCESS","precondition":false,"level":1}]}],"userStory":{"id":"catalogo-de-colores","storyName":"Catalogo de Colores","path":"file:///Z:/Sofka/CapetaAutomatizacion/Rest/automationtesting-trunk-toolsqapomwithpagefactory/toolsqapomwithpagefactory/src/test/resources/features.Placeholder/albunColors.feature","narrative":"  Como un usuario que necesita que desea comprar una pintura\n  nececita obtener la lista de colores\n  para poder visualizar correctamente y comprar alguno de ellos","type":"feature"},"featureTag":{"name":"Placeholder/Catalogo de Colores","type":"feature","displayName":"Placeholder/Catalogo de Colores"},"title":"get exitoso","backgroundTitle":"","backgroundDescription":"","startTime":"2021-10-22T16:24:05.409128600-05:00[America/Bogota]","duration":3419,"projectKey":"","isManualTestingUpToDate":false,"manual":false,"testSource":"Cucumber","actors":[{"name":"David the actor","can":["call an API at https://reqres.in"]}],"result":"SUCCESS"}